…
    ## # A tibble: 1 x 1
    ##   n_metacritic
    ##          <int>
    ## 1           62

``` r
#The number of observations for metacritic is 62.
albums%>%
  arrange(`Metacritic_Score`)
```

    ## # A tibble: 62 x 6
    ##    Album     Artist   Metacritic_Score Billboard_Peak_… Weeks_on_Billboa… Grammy
    ##    <chr>     <chr>               <dbl>            <dbl>             <dbl> <chr> 
    ##  1 Babel     Mumford…               63                1                78 Won   
    ##  2 24K Magic Bruno M…               70                4                41 Won   
    ##  3 Fearless  Taylor …               73                1               116 Won   
    ##  4 25        Adele                  75                1               184 Won   
    ##  5 21        Adele                  76                1               505 Won   
    ##  6 1989      Taylor …               76                1               326 Won   
    ##  7 Morning … Beck                   81                3                34 Won   
    ##  8 When We … Billie …               82                1               102 Won   
    ##  9 Father o… Vampire…               82                1                 8 nomin…
    ## 10 The Subu… Arcade …               87               40                20 Won   
    ## # … with 52 more rows

``` r
#The minimum value for metacritic score is 63.
albums%>%
  arrange(desc(`Metacritic_Score`))
```

    ## # A tibble: 62 x 6
    ##    Album    Artist    Metacritic_Score Billboard_Peak_P… Weeks_on_Billbo… Grammy
    ##    <chr>    <chr>                <dbl>             <dbl>            <dbl> <chr> 
    ##  1 To Pimp… Kendrick…               96                 1               54 nomin…
    ##  2 Ghosteen Nick Cav…               96                 6                1 no    
    ##  3 DAMN     Kendrick…               95                 2               12 nomin…
    ##  4 Black M… D'Angelo                95                 5               15 no    
    ##  5 Skeleto… Nick Cav…               95                13                3 no    
    ##  6 My Beau… Kanye We…               94                 3                5 no    
    ##  7 A Crow … Mount Ee…               93                 0                0 no    
    ##  8 Room 25  Noname                  93                 4                1 no    
    ##  9 Lemonade Beyonce                 92                 2               17 nomin…
    ## 10 Sunbath… Deafheav…               92               112                1 no    
    ## # … with 52 more rows
…
    ## # A tibble: 1 x 1
    ##   n_peak
    ##    <int>
    ## 1     62

``` r
#The number of observations for peak position is 62.
albums%>%
  select(`Billboard_Peak_Position`)%>%
  arrange(`Billboard_Peak_Position`)
```

    ## # A tibble: 62 x 1
    ##    Billboard_Peak_Position
    ##                      <dbl>
    ##  1                       0
    ##  2                       0
    ##  3                       0
    ##  4                       0
    ##  5                       0
    ##  6                       0
    ##  7                       1
    ##  8                       1
    ##  9                       1
    ## 10                       1
    ## # … with 52 more rows

``` r
#The minimum value for metacritic score is 0 weeks.
albums%>%
  select(`Billboard_Peak_Position`)%>%
  arrange(desc(`Billboard_Peak_Position`))
```

    ## # A tibble: 62 x 1
    ##    Billboard_Peak_Position
    ##                      <dbl>
    ##  1                     142
    ##  2                     112
    ##  3                      88
    ##  4                      60
    ##  5                      55
    ##  6                      54
    ##  7                      52
    ##  8                      50
    ##  9                      40
    ## 10                      40
    ## # … with 52 more rows
…
